<?xml version="1.0" encoding="UTF-8" standalone="no"?>
<!-- Created with Inkscape (http://www.inkscape.org/) -->

<svg
   xmlns:dc="http://purl.org/dc/elements/1.1/"
   xmlns:cc="http://creativecommons.org/ns#"
   xmlns:rdf="http://www.w3.org/1999/02/22-rdf-syntax-ns#"
   xmlns:svg="http://www.w3.org/2000/svg"
   xmlns="http://www.w3.org/2000/svg"
   xmlns:sodipodi="http://sodipodi.sourceforge.net/DTD/sodipodi-0.dtd"
   xmlns:inkscape="http://www.inkscape.org/namespaces/inkscape"
   width="64"
   height="64"
   viewBox="0 0 16.933333 16.933334"
   version="1.1"
   id="svg8"
   inkscape:version="0.92.4 5da689c313, 2019-01-14"
   sodipodi:docname="premium.svg">
  <defs
     id="defs2" />
  <sodipodi:namedview
     id="base"
     pagecolor="#ffffff"
     bordercolor="#666666"
     borderopacity="1.0"
     inkscape:pageopacity="0.0"
     inkscape:pageshadow="2"
     inkscape:zoom="7.9195959"
     inkscape:cx="21.45756"
     inkscape:cy="32.384882"
     inkscape:document-units="mm"
     inkscape:current-layer="layer1"
     showgrid="false"
     units="px"
     inkscape:window-width="1920"
     inkscape:window-height="1017"
     inkscape:window-x="1920"
     inkscape:window-y="35"
     inkscape:window-maximized="1" />
  <metadata
     id="metadata5">
    <rdf:RDF>
      <cc:Work
         rdf:about="">
        <dc:format>image/svg+xml</dc:format>
        <dc:type
           rdf:resource="http://purl.org/dc/dcmitype/StillImage" />
        <dc:title></dc:title>
      </cc:Work>
    </rdf:RDF>
  </metadata>
  <g
     inkscape:label="Layer 1"
     inkscape:groupmode="layer"
     id="layer1"
     transform="translate(0,-280.06665)">
    <path
       style="fill:#e1bb00;fill-opacity:1;stroke:none;stroke-width:14.83904362;stroke-miterlimit:4;stroke-dasharray:none;stroke-dashoffset:0;stroke-opacity:1;paint-order:stroke markers fill"
       d="m 8.4632759,282.35007 c -0.042182,0 -0.084525,0.004 -0.1260906,0.0124 -0.1245082,0.0243 -0.2437154,0.0851 -0.3405476,0.1819 l -0.427881,0.42788 -4.9671385,4.96714 c -0.2585465,0.25855 -0.2585465,0.67473 0,0.93328 l 0.4278808,0.42788 c 0.2585466,0.25854 0.6747298,0.25854 0.9332764,0 l 4.5005005,-4.5005 4.5263391,4.52633 c 0.258567,0.25857 0.674701,0.25858 0.933276,0 l 0.427881,-0.42788 c 0.258574,-0.25857 0.258568,-0.67522 0,-0.93379 l -4.99091,-4.99039 -0.00207,-0.003 -0.4278807,-0.42736 c -0.1292733,-0.12927 -0.2979287,-0.1943 -0.4666382,-0.1943 z"
       id="rect815"
       inkscape:connector-curvature="0" />
    <rect
       style="fill:#e1bb00;fill-opacity:1;stroke:none;stroke-width:20.28484726;stroke-miterlimit:4;stroke-dasharray:none;stroke-dashoffset:0;stroke-opacity:1;paint-order:stroke markers fill"
       id="rect819"
       width="7.550364"
       height="2.339"
       x="287.16098"
       y="-9.609355"
       ry="0.83785409"
       transform="rotate(90)" />
  </g>
</svg>
